km_range,workplace,shopping,errands,escort,leisure,home
0_2,0.07,0.3,0.2,0.27,0.14,0.17
2_5,0.16,0.33,0.27,0.3,0.24,0.24
5_10,0.21,0.2,0.21,0.21,0.21,0.21
10_20,0.28,0.109,0.17,0.14,0.19,0.19
20_50,0.23,0.05,0.11,0.06,0.14,0.14
50_100,0.04,0.01,0.02,0.01,0.04,0.03
100_150,0.01,0.001,0.02,0.01,0.04,0.02
